<?
$strError = 
array(
);
?><?
$result = 
array(
  'ADD' => '2',
  'UPD' => '0',
  'DEL' => '0',
  'DEA' => '0',
  'ERR' => '0',
  'CRC' => '2');
?><?
$result = 
array(
  'ADD' => '0',
  'UPD' => '0',
  'DEL' => '0',
  'DEA' => '0',
  'ERR' => '0',
  'CRC' => '0');
?><?
$result = 
array(
  'ADD' => '0',
  'UPD' => '2',
  'DEL' => '0',
  'DEA' => '0',
  'ERR' => '0',
  'CRC' => '2');
?><?
$result = 
array(
  'ADD' => '0',
  'UPD' => '0',
  'DEL' => '0',
  'DEA' => '0',
  'ERR' => '0',
  'CRC' => '0');
?>